{
  "Outputs": {
    "DnsAddress": {
      "Description": "Mesos Master",
      "Value": {
        "Fn::GetAtt": [
          "ElasticLoadBalancer",
          "DNSName"
        ]
      }
    },
    "ExhibitorS3Bucket": {
      "Description": "Exhibitor S3 bucket name",
      "Value": {
        "Ref": "ExhibitorS3Bucket"
      }
    },
    "PublicSlaveDnsAddress": {
      "Description": "Public slaves",
      "Value": {
        "Fn::GetAtt": [
          "PublicSlaveLoadBalancer",
          "DNSName"
        ]
      }
    }
  },
  "Mappings": {
    "ClusterPackagesJson": {
      "default": {
        "default": "[\"3dt--caa28740ba55b7f6de50ab574e91a3f087701e7a\", \"adminrouter--a4c1e2c311b66185e3fc26350ef55086a4434b3c\", \"avro-cpp--6d585e71630922f860dd48538bf8ba19e15e3083\", \"boost-libs--2015ccb58fb756f61c02ee6aa05cc1e27459a9ec\", \"bootstrap--0e35d51178b06f342d2c1f5269f816dc2e840e5f\", \"boto--6344d31eef082c7bd13259b17034ea7b5c34aedf\", \"check-time--be7d0ba757ec87f9965378fee7c76a6ee5ae996d\", \"cni--e48337da39a8cd379414acfe0da52a9226a10d24\", \"cosmos--e51eff0287fa62a5c3f119bf49596f616eafad72\", \"curl--fc3486c43f98e63f9b12675f1356e8fe842f26b0\", \"dcos-config--setup_4c448a69472c87260669e8c2af732657a449b35e\", \"dcos-history--2e58051de37d3cb9e1ffd83337933696100ac01c\", \"dcos-image--165b814650bb7997dd399d45b7aaa2930fd56f5d\", \"dcos-image-deps--83584fd868e5b470f7cf754424a9a75b328e9b68\", \"dcos-integration-test--46c7a18bf99f132826095f77389a0efc9a6add8b\", \"dcos-log--4d630df863228f38c6333e44670b4c4b20a74832\", \"dcos-metadata--setup_4c448a69472c87260669e8c2af732657a449b35e\", \"dcos-metrics--eeed452d4a29762e14563874340a73b4d79c0438\", \"dcos-oauth--0079529da183c0f23a06d2b069721b6fa6cc7b52\", \"dcos-signal--5633dc8da7e864cb34e3d29ed13e6756c7a6df94\", \"dcos-ui--5f983887ce5d4c347b5b64982a7436274a71854b\", \"dnspython--0f833eb9a8abeba3179b43f3a200a8cd42d3795a\", \"docker-gc--59a98ed6446a084bf74e4ff4b8e3479f59ea8528\", \"dvdcli--5374dd4ffb519f1dcefdec89b2247e3404f2e2e3\", \"erlang--a9ee2530357a3301e53056b36a93420847b339a3\", \"exhibitor--6be3f543dbed3abbc22218fd703e52609bc49a67\", \"flask--26d1bcdb2d1c3dcf1d2c03bc0d4f29c86d321b21\", \"java--cd5e921ce66b0d3303883c06d73a657314044304\", \"libevent--208be855d2be29c9271a7bd6c04723ff79946e02\", \"libffi--83ce3bd7eda2ef089e57efd2bc16c144d5a1f094\", \"libsodium--9ff915db08c6bba7d6738af5084e782b13c84bf8\", \"logrotate--7f7bc4416d3ad101d0c5218872858483b516be07\", \"marathon--8f59f94aaa21adbe497e0f49a8d0bb41515968db\", \"mesos--9f6b69d99c090233d393326801f29df3d0a02946\", \"mesos-dns--cddd24b0303ee78e44b0411482164aaa912d02a8\", \"mesos-modules--5e6e24770813eaf35905a4e37ff292a4e6546ec2\", \"metronome--6eafabd93182e8844c72ce19690e93d2b7926931\", \"navstar--0b141af667446bbe42069fbdba130276f872061c\", \"ncurses--d889894b71aa1a5b311bafef0e85479025b4dacb\", \"octarine--6d19cc951bac94fe244e93874458b4eb9869470e\", \"openssl--b01a32a42e3ccba52b417276e9509a441e1d4a82\", \"pkgpanda-api--44ef11ff2c301d635324b44c0cd715e365acd6f6\", \"pkgpanda-role--f8a749a4a821476ad2ef7e9dd9d12b6a8c4643a4\", \"pytest--78aee3e58a049cdab0d266af74f77d658b360b4f\", \"python--b7a144a49577a223d37d447c568f51330ee95390\", \"python-azure-mgmt-resource--03c05550f43b0e7a4455c33fe43b0deb755d87f0\", \"python-cryptography--4184767c68e48801dd394072cb370c610a05029d\", \"python-dateutil--fdc6ff929f65dd0918cf75a9ad56704683d31781\", \"python-docopt--beba78faa13e5bf4c52393b4b82d81f3c391aa65\", \"python-gunicorn--a537f95661fb2689c52fe12510eb0d01cb83af60\", \"python-isodate--40d378c688e6badfd16676dd8b51b742bfebc8d5\", \"python-jinja2--7450f5ae5a822f63f7a58c717207be0456df51ed\", \"python-kazoo--cb7ce13a1068cd82dd84ea0de32b529a760a4bdd\", \"python-markupsafe--dd46d2a3c58611656a235f96d4adc51b2a7a590e\", \"python-passlib--802ec3605c0b82428fedba60983b1bafaa036bb8\", \"python-pyyaml--81dd44cc4a24db7cefa7016c6586a131acf279c3\", \"python-requests--1b2cadbd3811cc0c2ee235ce927e13ea1d6af41d\", \"python-retrying--eb7b8bac133f50492b1e1349cbe77c3e38bd02c3\", \"python-tox--07244f8a939a10353634c952c6d88ec4a3c05736\", \"rexray--f07795e2c10f9a1a27de9d8e67ab171029db2e1d\", \"six--f06424b68523c4dfa2a7c3e7475d479f3d361e42\", \"spartan--daba6f5a190e67874b3aa852601ba039ecbab039\", \"strace--7d01796d64994451c1b2b82d161a335cbe90569b\", \"teamcity-messages--e623a4d86eb3a8d199cefcc240dd4c5460cb2962\", \"toybox--f235594ab8ea9a2864ee72abe86723d76f92e848\"]"
      }
    },
    "NATAmi": {
      "ap-southeast-1": {
        "default": "ami-b082dae2"
      },
      "us-west-1": {
        "default": "ami-2b2b296e"
      },
      "us-west-2": {
        "default": "ami-bb69128b"
      },
      "us-gov-west-1": {
        "default": "ami-e8ab1489"
      },
      "us-east-1": {
        "default": "ami-4c9e4b24"
      },
      "eu-west-1": {
        "default": "ami-3760b040"
      },
      "sa-east-1": {
        "default": "ami-b972dba4"
      },
      "ap-southeast-2": {
        "default": "ami-996402a3"
      },
      "eu-central-1": {
        "default": "ami-204c7a3d"
      },
      "ap-northeast-1": {
        "default": "ami-55c29e54"
      }
    },
    "Parameters": {
      "SlaveInstanceType": {
        "default": "m3.xlarge"
      },
      "MasterInstanceType": {
        "default": "m3.xlarge"
      },
      "PublicSlaveInstanceType": {
        "default": "m3.xlarge"
      },
      "StackCreationTimeout": {
        "default": "PT45M"
      },
      "PublicSubnetRange": {
        "default": "10.0.4.0/22"
      },
      "PrivateSubnetRange": {
        "default": "10.0.0.0/22"
      },
      "VPCSubnetRange": {
        "default": "10.0.0.0/16"
      }
    },
    "RegionToAmi": {
      "ap-southeast-1": {
        "stable": "ami-27cc7d44"
      },
      "us-west-1": {
        "stable": "ami-1a1b457a"
      },
      "us-west-2": {
        "stable": "ami-2551d145"
      },
      "us-gov-west-1": {
        "stable": "ami-a846fcc9"
      },
      "us-east-1": {
        "stable": "ami-42ad7d54"
      },
      "eu-west-1": {
        "stable": "ami-89f6dbef"
      },
      "sa-east-1": {
        "stable": "ami-c51573a9"
      },
      "ap-southeast-2": {
        "stable": "ami-5baeae38"
      },
      "eu-central-1": {
        "stable": "ami-4733f928"
      },
      "ap-northeast-1": {
        "stable": "ami-86f1b9e1"
      }
    }
  },
  "Metadata": {
    "TemplateGenerationDate": "2017-07-10 22:53:18.181063",
    "DcosImageCommit": "008d3bfe4acca190100fcafad9a18a205a919590"
  },
  "Parameters": {
    "KeyName": {
      "Type": "AWS::EC2::KeyPair::KeyName",
      "Description": "Required: Specify your AWS EC2 Key Pair."
    },
    "SlaveInstanceCount": {
      "Type": "Number",
      "Description": "Required: Specify the number of private agent nodes or accept the default.",
      "Default": "5"
    },
    "AdminLocation": {
      "ConstraintDescription": "must be a valid CIDR.",
      "Default": "0.0.0.0/0",
      "Description": "Optional: Specify the IP range to whitelist for access to the admin zone. Must be a valid CIDR.",
      "MaxLength": "18",
      "MinLength": "9",
      "Type": "String",
      "AllowedPattern": "^([0-9]+\\.){3}[0-9]+\\/[0-9]+$"
    },
    "OAuthEnabled": {
      "Type": "String",
      "AllowedValues": [
        "true",
        "false"
      ],
      "Description": "\nEnable OAuth authentication",
      "Default": "true"
    },
    "PublicSlaveInstanceCount": {
      "Type": "Number",
      "Description": "Required: Specify the number of public agent nodes or accept the default.",
      "Default": "1"
    }
  },
  "Description": "DC/OS AWS CloudFormation Template",
  "AWSTemplateFormatVersion": "2010-09-09",
  "Resources": {
    "PublicSubnet": {
      "Properties": {
        "VpcId": {
          "Ref": "Vpc"
        },
        "Tags": [
          {
            "Key": "Application",
            "Value": {
              "Ref": "AWS::StackName"
            }
          },
          {
            "Key": "Network",
            "Value": "Public"
          }
        ],
        "CidrBlock": {
          "Fn::FindInMap": [
            "Parameters",
            "PublicSubnetRange",
            "default"
          ]
        }
      },
      "DependsOn": "Vpc",
      "Type": "AWS::EC2::Subnet"
    },
    "NATInstance": {
      "Properties": {
        "KeyName": {
          "Ref": "KeyName"
        },
        "ImageId": {
          "Fn::FindInMap": [
            "NATAmi",
            {
              "Ref": "AWS::Region"
            },
            "default"
          ]
        },
        "SourceDestCheck": "false",
        "NetworkInterfaces": [
          {
            "SubnetId": {
              "Ref": "PublicSubnet"
            },
            "DeleteOnTermination": "true",
            "DeviceIndex": "0",
            "GroupSet": [
              {
                "Ref": "SlaveSecurityGroup"
              },
              {
                "Ref": "MasterSecurityGroup"
              },
              {
                "Ref": "AdminSecurityGroup"
              }
            ],
            "AssociatePublicIpAddress": "true"
          }
        ],
        "InstanceType": "m3.medium"
      },
      "DependsOn": "GatewayToInternet",
      "Type": "AWS::EC2::Instance"
    },
    "PublicSlaveToPublicSlaveIngress": {
      "Properties": {
        "GroupId": {
          "Ref": "PublicSlaveSecurityGroup"
        },
        "SourceSecurityGroupId": {
          "Ref": "PublicSlaveSecurityGroup"
        },
        "ToPort": "65535",
        "FromPort": "0",
        "IpProtocol": "-1"
      },
      "Type": "AWS::EC2::SecurityGroupIngress"
    },
    "SlaveInstanceProfile": {
      "Properties": {
        "Roles": [
          {
            "Ref": "SlaveRole"
          }
        ],
        "Path": "/"
      },
      "Type": "AWS::IAM::InstanceProfile"
    },
    "SlaveToPublicSlaveIngress": {
      "Properties": {
        "GroupId": {
          "Ref": "PublicSlaveSecurityGroup"
        },
        "SourceSecurityGroupId": {
          "Ref": "SlaveSecurityGroup"
        },
        "ToPort": "65535",
        "FromPort": "0",
        "IpProtocol": "-1"
      },
      "Type": "AWS::EC2::SecurityGroupIngress"
    },
    "PublicSlaveLaunchConfig": {
      "Properties": {
        "KeyName": {
          "Ref": "KeyName"
        },
        "SecurityGroups": [
          {
            "Ref": "PublicSlaveSecurityGroup"
          }
        ],
        "UserData": {
          "Fn::Base64": {
            "Fn::Join": [
              "",
              [
                "#cloud-config",
                "\n",
                "\"coreos\":",
                "\n",
                "  \"units\":",
                "\n",
                "  - \"command\": |-",
                "\n",
                "      start",
                "\n",
                "    \"content\": |",
                "\n",
                "      [Unit]",
                "\n",
                "      Description=AWS Setup: Formats the /var/lib ephemeral drive",
                "\n",
                "      Before=var-lib.mount dbus.service",
                "\n",
                "      [Service]",
                "\n",
                "      Type=oneshot",
                "\n",
                "      RemainAfterExit=yes",
                "\n",
                "      ExecStart=/bin/bash -c \"(blkid -t TYPE=ext4 | grep xvdb) || (/usr/sbin/mkfs.ext4 -F /dev/xvdb)\"",
                "\n",
                "    \"name\": |-",
                "\n",
                "      format-var-lib-ephemeral.service",
                "\n",
                "  - \"command\": |-",
                "\n",
                "      start",
                "\n",
                "    \"content\": |",
                "\n",
                "      [Unit]",
                "\n",
                "      Description=AWS Setup: Mount /var/lib",
                "\n",
                "      Before=dbus.service",
                "\n",
                "      [Mount]",
                "\n",
                "      What=/dev/xvdb",
                "\n",
                "      Where=/var/lib",
                "\n",
                "      Type=ext4",
                "\n",
                "    \"name\": |-",
                "\n",
                "      var-lib.mount",
                "\n",
                "  - \"command\": |-",
                "\n",
                "      stop",
                "\n",
                "    \"mask\": !!bool |-",
                "\n",
                "      true",
                "\n",
                "    \"name\": |-",
                "\n",
                "      etcd.service",
                "\n",
                "  - \"command\": |-",
                "\n",
                "      stop",
                "\n",
                "    \"mask\": !!bool |-",
                "\n",
                "      true",
                "\n",
                "    \"name\": |-",
                "\n",
                "      update-engine.service",
                "\n",
                "  - \"command\": |-",
                "\n",
                "      stop",
                "\n",
                "    \"mask\": !!bool |-",
                "\n",
                "      true",
                "\n",
                "    \"name\": |-",
                "\n",
                "      locksmithd.service",
                "\n",
                "  - \"command\": |-",
                "\n",
                "      stop",
                "\n",
                "    \"name\": |-",
                "\n",
                "      systemd-resolved.service",
                "\n",
                "  - \"command\": |-",
                "\n",
                "      restart",
                "\n",
                "    \"name\": |-",
                "\n",
                "      systemd-journald.service",
                "\n",
                "  - \"command\": |-",
                "\n",
                "      restart",
                "\n",
                "    \"name\": |-",
                "\n",
                "      docker.service",
                "\n",
                "  - \"command\": |-",
                "\n",
                "      start",
                "\n",
                "    \"content\": |",
                "\n",
                "      [Unit]",
                "\n",
                "      Before=dcos.target",
                "\n",
                "      [Service]",
                "\n",
                "      Type=oneshot",
                "\n",
                "      StandardOutput=journal+console",
                "\n",
                "      StandardError=journal+console",
                "\n",
                "      ExecStartPre=/usr/bin/mkdir -p /etc/profile.d",
                "\n",
                "      ExecStart=/usr/bin/ln -sf /opt/mesosphere/bin/add_dcos_path.sh /etc/profile.d/dcos.sh",
                "\n",
                "    \"name\": |-",
                "\n",
                "      dcos-link-env.service",
                "\n",
                "  - \"content\": |",
                "\n",
                "      [Unit]",
                "\n",
                "      Description=Pkgpanda: Download DC/OS to this host.",
                "\n",
                "      After=network-online.target",
                "\n",
                "      Wants=network-online.target",
                "\n",
                "      ConditionPathExists=!/opt/mesosphere/",
                "\n",
                "      [Service]",
                "\n",
                "      Type=oneshot",
                "\n",
                "      StandardOutput=journal+console",
                "\n",
                "      StandardError=journal+console",
                "\n",
                "      ExecStartPre=/usr/bin/curl --keepalive-time 2 -fLsSv --retry 20 -Y 100000 -y 60 -o /tmp/bootstrap.tar.xz https://downloads.dcos.io/dcos/stable/1.9.1/bootstrap/c3db0d9bd3ab2897343aaa1b5609e4e1956d7740.bootstrap.tar.xz",
                "\n",
                "      ExecStartPre=/usr/bin/mkdir -p /opt/mesosphere",
                "\n",
                "      ExecStart=/usr/bin/tar -axf /tmp/bootstrap.tar.xz -C /opt/mesosphere",
                "\n",
                "      ExecStartPost=-/usr/bin/rm -f /tmp/bootstrap.tar.xz",
                "\n",
                "    \"name\": |-",
                "\n",
                "      dcos-download.service",
                "\n",
                "  - \"command\": |-",
                "\n",
                "      start",
                "\n",
                "    \"content\": |",
                "\n",
                "      [Unit]",
                "\n",
                "      Description=Pkgpanda: Specialize DC/OS for this host.",
                "\n",
                "      Requires=dcos-download.service",
                "\n",
                "      After=dcos-download.service",
                "\n",
                "      [Service]",
                "\n",
                "      Type=oneshot",
                "\n",
                "      StandardOutput=journal+console",
                "\n",
                "      StandardError=journal+console",
                "\n",
                "      EnvironmentFile=/opt/mesosphere/environment",
                "\n",
                "      ExecStart=/opt/mesosphere/bin/pkgpanda setup --no-block-systemd",
                "\n",
                "      [Install]",
                "\n",
                "      WantedBy=multi-user.target",
                "\n",
                "    \"enable\": !!bool |-",
                "\n",
                "      true",
                "\n",
                "    \"name\": |-",
                "\n",
                "      dcos-setup.service",
                "\n",
                "    \"no_block\": !!bool |-",
                "\n",
                "      true",
                "\n",
                "  - \"command\": |-",
                "\n",
                "      start",
                "\n",
                "    \"content\": |-",
                "\n",
                "      [Unit]",
                "\n",
                "      Description=AWS Setup: Signal CloudFormation Success",
                "\n",
                "      ConditionPathExists=!/var/lib/dcos-cfn-signal",
                "\n",
                "      [Service]",
                "\n",
                "      Type=simple",
                "\n",
                "      Restart=on-failure",
                "\n",
                "      StartLimitInterval=0",
                "\n",
                "      RestartSec=15s",
                "\n",
                "      EnvironmentFile=/opt/mesosphere/environment",
                "\n",
                "      EnvironmentFile=/opt/mesosphere/etc/cfn_signal_metadata",
                "\n",
                "      Environment=\"AWS_CFN_SIGNAL_THIS_RESOURCE=PublicSlaveServerGroup\"",
                "\n",
                "      ExecStartPre=/bin/ping -c1 leader.mesos",
                "\n",
                "      ExecStartPre=/opt/mesosphere/bin/cfn-signal",
                "\n",
                "      ExecStart=/usr/bin/touch /var/lib/dcos-cfn-signal",
                "\n",
                "    \"name\": |-",
                "\n",
                "      dcos-cfn-signal.service",
                "\n",
                "    \"no_block\": !!bool |-",
                "\n",
                "      true",
                "\n",
                "  \"update\":",
                "\n",
                "    \"reboot-strategy\": |-",
                "\n",
                "      off",
                "\n",
                "\"write_files\":",
                "\n",
                "- \"content\": |",
                "\n",
                "    https://downloads.dcos.io/dcos/stable/1.9.1",
                "\n",
                "  \"owner\": |-",
                "\n",
                "    root",
                "\n",
                "  \"path\": |-",
                "\n",
                "    /etc/mesosphere/setup-flags/repository-url",
                "\n",
                "  \"permissions\": |-",
                "\n",
                "    0644",
                "\n",
                "- \"content\": |",
                "\n",
                "    ",
                {
                  "Fn::FindInMap": [
                    "ClusterPackagesJson",
                    "default",
                    "default"
                  ]
                },
                "\n",
                "  \"owner\": |-",
                "\n",
                "    root",
                "\n",
                "  \"path\": |-",
                "\n",
                "    /etc/mesosphere/setup-flags/cluster-packages.json",
                "\n",
                "  \"permissions\": |-",
                "\n",
                "    0644",
                "\n",
                "- \"content\": |",
                "\n",
                "    [Journal]",
                "\n",
                "    MaxLevelConsole=warning",
                "\n",
                "    RateLimitInterval=1s",
                "\n",
                "    RateLimitBurst=20000",
                "\n",
                "  \"owner\": |-",
                "\n",
                "    root",
                "\n",
                "  \"path\": |-",
                "\n",
                "    /etc/systemd/journald.conf.d/dcos.conf",
                "\n",
                "  \"permissions\": |-",
                "\n",
                "    0644",
                "\n",
                "- \"content\": |",
                "\n",
                "    rexray:",
                "\n",
                "      loglevel: info",
                "\n",
                "      modules:",
                "\n",
                "        default-admin:",
                "\n",
                "          host: tcp://127.0.0.1:61003",
                "\n",
                "      storageDrivers:",
                "\n",
                "      - ec2",
                "\n",
                "      volume:",
                "\n",
                "        unmount:",
                "\n",
                "          ignoreusedcount: true",
                "\n",
                "  \"path\": |-",
                "\n",
                "    /etc/rexray/config.yml",
                "\n",
                "  \"permissions\": |-",
                "\n",
                "    0644",
                "\n",
                "- \"content\": |",
                "\n",
                "    \"bound_values\":",
                "\n",
                "      \"adminrouter_auth_enabled\": |-",
                "\n",
                "        ",
                {
                  "Ref": "OAuthEnabled"
                },
                "\n",
                "      \"agent_role\": |-",
                "\n",
                "        ",
                {
                  "Ref": "SlaveRole"
                },
                "\n",
                "      \"aws_region\": |-",
                "\n",
                "        ",
                {
                  "Ref": "AWS::Region"
                },
                "\n",
                "      \"aws_stack_id\": |-",
                "\n",
                "        ",
                {
                  "Ref": "AWS::StackId"
                },
                "\n",
                "      \"aws_stack_name\": |-",
                "\n",
                "        ",
                {
                  "Ref": "AWS::StackName"
                },
                "\n",
                "      \"cluster_name\": |-",
                "\n",
                "        ",
                {
                  "Ref": "AWS::StackName"
                },
                "\n",
                "      \"exhibitor_address\": |-",
                "\n",
                "        ",
                {
                  "Fn::GetAtt": [
                    "InternalMasterLoadBalancer",
                    "DNSName"
                  ]
                },
                "\n",
                "      \"master_external_loadbalancer\": |-",
                "\n",
                "        ",
                {
                  "Fn::GetAtt": [
                    "ElasticLoadBalancer",
                    "DNSName"
                  ]
                },
                "\n",
                "      \"master_role\": |-",
                "\n",
                "        ",
                {
                  "Ref": "MasterRole"
                },
                "\n",
                "      \"oauth_enabled\": |-",
                "\n",
                "        ",
                {
                  "Ref": "OAuthEnabled"
                },
                "\n",
                "      \"s3_bucket\": |-",
                "\n",
                "        ",
                {
                  "Ref": "ExhibitorS3Bucket"
                },
                "\n",
                "      \"s3_prefix\": |-",
                "\n",
                "        ",
                {
                  "Ref": "AWS::StackName"
                },
                "\n",
                "    \"late_bound_package_id\": |-",
                "\n",
                "      dcos-provider-4c448a69472c87260669e8c2af732657a449b35e-aws--setup",
                "\n",
                "  \"owner\": |-",
                "\n",
                "    root",
                "\n",
                "  \"path\": |-",
                "\n",
                "    /etc/mesosphere/setup-flags/late-config.yaml",
                "\n",
                "  \"permissions\": |-",
                "\n",
                "    0644",
                "\n",
                "- \"content\": \"\"",
                "\n",
                "  \"path\": |-",
                "\n",
                "    /etc/mesosphere/roles/slave_public",
                "\n",
                "- \"content\": \"\"",
                "\n",
                "  \"path\": |-",
                "\n",
                "    /etc/mesosphere/roles/aws",
                "\n"
              ]
            ]
          }
        },
        "BlockDeviceMappings": [
          {
            "VirtualName": "ephemeral0",
            "DeviceName": "/dev/sdb"
          }
        ],
        "InstanceType": {
          "Fn::FindInMap": [
            "Parameters",
            "PublicSlaveInstanceType",
            "default"
          ]
        },
        "ImageId": {
          "Fn::FindInMap": [
            "RegionToAmi",
            {
              "Ref": "AWS::Region"
            },
            "stable"
          ]
        },
        "AssociatePublicIpAddress": "true",
        "EbsOptimized": "true",
        "IamInstanceProfile": {
          "Ref": "SlaveInstanceProfile"
        }
      },
      "Type": "AWS::AutoScaling::LaunchConfiguration"
    },
    "PublicSlaveIngressTwo": {
      "Properties": {
        "CidrIp": "0.0.0.0/0",
        "GroupId": {
          "Ref": "PublicSlaveSecurityGroup"
        },
        "ToPort": "5050",
        "FromPort": "23",
        "IpProtocol": "tcp"
      },
      "Type": "AWS::EC2::SecurityGroupIngress"
    },
    "LbSecurityGroup": {
      "Properties": {
        "VpcId": {
          "Ref": "Vpc"
        },
        "GroupDescription": "Mesos Master LB"
      },
      "Type": "AWS::EC2::SecurityGroup"
    },
    "PrivateOutboundNetworkAclEntry": {
      "Properties": {
        "CidrBlock": "0.0.0.0/0",
        "NetworkAclId": {
          "Ref": "PrivateNetworkAcl"
        },
        "RuleAction": "allow",
        "Egress": "true",
        "RuleNumber": "100",
        "PortRange": {
          "To": "65535",
          "From": "0"
        },
        "Protocol": "-1"
      },
      "Type": "AWS::EC2::NetworkAclEntry"
    },
    "PublicSlaveSecurityGroup": {
      "Properties": {
        "VpcId": {
          "Ref": "Vpc"
        },
        "GroupDescription": "Mesos Slaves Public"
      },
      "Type": "AWS::EC2::SecurityGroup"
    },
    "PublicSlaveToSlaveIngress": {
      "Properties": {
        "GroupId": {
          "Ref": "SlaveSecurityGroup"
        },
        "SourceSecurityGroupId": {
          "Ref": "PublicSlaveSecurityGroup"
        },
        "ToPort": "65535",
        "FromPort": "0",
        "IpProtocol": "-1"
      },
      "Type": "AWS::EC2::SecurityGroupIngress"
    },
    "PublicSlaveIngressFive": {
      "Properties": {
        "CidrIp": "0.0.0.0/0",
        "GroupId": {
          "Ref": "PublicSlaveSecurityGroup"
        },
        "ToPort": "5050",
        "FromPort": "23",
        "IpProtocol": "udp"
      },
      "Type": "AWS::EC2::SecurityGroupIngress"
    },
    "Vpc": {
      "Properties": {
        "EnableDnsSupport": "true",
        "EnableDnsHostnames": "true",
        "CidrBlock": {
          "Fn::FindInMap": [
            "Parameters",
            "VPCSubnetRange",
            "default"
          ]
        },
        "Tags": [
          {
            "Key": "Application",
            "Value": {
              "Ref": "AWS::StackName"
            }
          },
          {
            "Key": "Network",
            "Value": "Public"
          }
        ]
      },
      "Type": "AWS::EC2::VPC"
    },
    "PublicRoute": {
      "Properties": {
        "DestinationCidrBlock": "0.0.0.0/0",
        "RouteTableId": {
          "Ref": "PublicRouteTable"
        },
        "GatewayId": {
          "Ref": "InternetGateway"
        }
      },
      "DependsOn": "GatewayToInternet",
      "Type": "AWS::EC2::Route"
    },
    "PublicSlaveToMasterIngress": {
      "Properties": {
        "GroupId": {
          "Ref": "MasterSecurityGroup"
        },
        "SourceSecurityGroupId": {
          "Ref": "PublicSlaveSecurityGroup"
        },
        "ToPort": "65535",
        "FromPort": "0",
        "IpProtocol": "-1"
      },
      "Type": "AWS::EC2::SecurityGroupIngress"
    },
    "SlaveToSlaveIngress": {
      "Properties": {
        "GroupId": {
          "Ref": "SlaveSecurityGroup"
        },
        "SourceSecurityGroupId": {
          "Ref": "SlaveSecurityGroup"
        },
        "ToPort": "65535",
        "FromPort": "0",
        "IpProtocol": "-1"
      },
      "Type": "AWS::EC2::SecurityGroupIngress"
    },
    "PublicSlaveLoadBalancer": {
      "Properties": {
        "SecurityGroups": [
          {
            "Ref": "PublicSlaveSecurityGroup"
          }
        ],
        "HealthCheck": {
          "HealthyThreshold": "2",
          "Interval": "5",
          "Target": "HTTP:9090/_haproxy_health_check",
          "Timeout": "2",
          "UnhealthyThreshold": "2"
        },
        "Listeners": [
          {
            "InstancePort": "80",
            "Protocol": "TCP",
            "InstanceProtocol": "TCP",
            "LoadBalancerPort": "80"
          },
          {
            "InstancePort": "443",
            "Protocol": "TCP",
            "InstanceProtocol": "TCP",
            "LoadBalancerPort": "443"
          }
        ],
        "Subnets": [
          {
            "Ref": "PublicSubnet"
          }
        ]
      },
      "DependsOn": "GatewayToInternet",
      "Type": "AWS::ElasticLoadBalancing::LoadBalancer"
    },
    "PrivateRoute": {
      "Properties": {
        "DestinationCidrBlock": "0.0.0.0/0",
        "InstanceId": {
          "Ref": "NATInstance"
        },
        "RouteTableId": {
          "Ref": "PrivateRouteTable"
        }
      },
      "Type": "AWS::EC2::Route"
    },
    "MasterToMasterIngress": {
      "Properties": {
        "GroupId": {
          "Ref": "MasterSecurityGroup"
        },
        "SourceSecurityGroupId": {
          "Ref": "MasterSecurityGroup"
        },
        "ToPort": "65535",
        "FromPort": "0",
        "IpProtocol": "-1"
      },
      "Type": "AWS::EC2::SecurityGroupIngress"
    },
    "DHCPOptions": {
      "Properties": {
        "DomainName": {
          "Fn::If": [
            "RegionIsUsEast1",
            "ec2.internal",
            {
              "Fn::Join": [
                "",
                [
                  {
                    "Ref": "AWS::Region"
                  },
                  ".compute.internal"
                ]
              ]
            }
          ]
        },
        "DomainNameServers": [
          "AmazonProvidedDNS"
        ]
      },
      "Type": "AWS::EC2::DHCPOptions"
    },
    "PrivateInboundNetworkAclEntry": {
      "Properties": {
        "CidrBlock": "0.0.0.0/0",
        "NetworkAclId": {
          "Ref": "PrivateNetworkAcl"
        },
        "RuleAction": "allow",
        "Egress": "false",
        "RuleNumber": "100",
        "PortRange": {
          "To": "65535",
          "From": "0"
        },
        "Protocol": "-1"
      },
      "Type": "AWS::EC2::NetworkAclEntry"
    },
    "PublicSlaveIngressSix": {
      "Properties": {
        "CidrIp": "0.0.0.0/0",
        "GroupId": {
          "Ref": "PublicSlaveSecurityGroup"
        },
        "ToPort": "32000",
        "FromPort": "5052",
        "IpProtocol": "udp"
      },
      "Type": "AWS::EC2::SecurityGroupIngress"
    },
    "AdminSecurityGroup": {
      "Properties": {
        "VpcId": {
          "Ref": "Vpc"
        },
        "GroupDescription": "Enable admin access to servers",
        "SecurityGroupIngress": [
          {
            "CidrIp": {
              "Ref": "AdminLocation"
            },
            "ToPort": "22",
            "FromPort": "22",
            "IpProtocol": "tcp"
          },
          {
            "CidrIp": {
              "Ref": "AdminLocation"
            },
            "ToPort": "80",
            "FromPort": "80",
            "IpProtocol": "tcp"
          },
          {
            "CidrIp": {
              "Ref": "AdminLocation"
            },
            "ToPort": "443",
            "FromPort": "443",
            "IpProtocol": "tcp"
          }
        ]
      },
      "Type": "AWS::EC2::SecurityGroup"
    },
    "MasterToPublicSlaveIngress": {
      "Properties": {
        "GroupId": {
          "Ref": "PublicSlaveSecurityGroup"
        },
        "SourceSecurityGroupId": {
          "Ref": "MasterSecurityGroup"
        },
        "ToPort": "65535",
        "FromPort": "0",
        "IpProtocol": "-1"
      },
      "Type": "AWS::EC2::SecurityGroupIngress"
    },
    "MasterRole": {
      "Properties": {
        "AssumeRolePolicyDocument": {
          "Version": "2012-10-17",
          "Statement": [
            {
              "Principal": {
                "Service": [
                  "ec2.amazonaws.com"
                ]
              },
              "Action": [
                "sts:AssumeRole"
              ],
              "Effect": "Allow"
            }
          ]
        },
        "Path": "/",
        "Policies": [
          {
            "PolicyDocument": {
              "Version": "2012-10-17",
              "Statement": [
                {
                  "Resource": [
                    {
                      "Fn::Join": [
                        "",
                        [
                          {
                            "Fn::If": [
                              "RegionIsUsGovWest1",
                              "arn:aws-us-gov:s3:::",
                              "arn:aws:s3:::"
                            ]
                          },
                          {
                            "Ref": "ExhibitorS3Bucket"
                          },
                          "/*"
                        ]
                      ]
                    },
                    {
                      "Fn::Join": [
                        "",
                        [
                          {
                            "Fn::If": [
                              "RegionIsUsGovWest1",
                              "arn:aws-us-gov:s3:::",
                              "arn:aws:s3:::"
                            ]
                          },
                          {
                            "Ref": "ExhibitorS3Bucket"
                          }
                        ]
                      ]
                    }
                  ],
                  "Action": [
                    "s3:AbortMultipartUpload",
                    "s3:DeleteObject",
                    "s3:GetBucketAcl",
                    "s3:GetBucketPolicy",
                    "s3:GetObject",
                    "s3:GetObjectAcl",
                    "s3:ListBucket",
                    "s3:ListBucketMultipartUploads",
                    "s3:ListMultipartUploadParts",
                    "s3:PutObject",
                    "s3:PutObjectAcl"
                  ],
                  "Effect": "Allow"
                },
                {
                  "Resource": [
                    {
                      "Ref": "AWS::StackId"
                    },
                    {
                      "Fn::Join": [
                        "",
                        [
                          {
                            "Ref": "AWS::StackId"
                          },
                          "/*"
                        ]
                      ]
                    }
                  ],
                  "Action": [
                    "cloudformation:*"
                  ],
                  "Effect": "Allow"
                },
                {
                  "Resource": "*",
                  "Action": [
                    "ec2:DescribeKeyPairs",
                    "ec2:DescribeSubnets",
                    "autoscaling:DescribeLaunchConfigurations",
                    "autoscaling:UpdateAutoScalingGroup",
                    "autoscaling:DescribeAutoScalingGroups",
                    "autoscaling:DescribeScalingActivities",
                    "elasticloadbalancing:DescribeLoadBalancers"
                  ],
                  "Effect": "Allow"
                }
              ]
            },
            "PolicyName": "root"
          }
        ]
      },
      "Type": "AWS::IAM::Role"
    },
    "PublicSlaveServerGroup": {
      "Properties": {
        "LoadBalancerNames": [
          {
            "Ref": "PublicSlaveLoadBalancer"
          }
        ],
        "MinSize": {
          "Ref": "PublicSlaveInstanceCount"
        },
        "LaunchConfigurationName": {
          "Ref": "PublicSlaveLaunchConfig"
        },
        "Tags": [
          {
            "PropagateAtLaunch": "true",
            "Key": "role",
            "Value": "mesos-slave"
          }
        ],
        "VPCZoneIdentifier": [
          {
            "Ref": "PublicSubnet"
          }
        ],
        "AvailabilityZones": [
          {
            "Fn::GetAtt": [
              "PublicSubnet",
              "AvailabilityZone"
            ]
          }
        ],
        "DesiredCapacity": {
          "Ref": "PublicSlaveInstanceCount"
        },
        "MaxSize": {
          "Ref": "PublicSlaveInstanceCount"
        }
      },
      "CreationPolicy": {
        "ResourceSignal": {
          "Timeout": {
            "Fn::FindInMap": [
              "Parameters",
              "StackCreationTimeout",
              "default"
            ]
          },
          "Count": {
            "Ref": "PublicSlaveInstanceCount"
          }
        }
      },
      "DependsOn": "GatewayToInternet",
      "Type": "AWS::AutoScaling::AutoScalingGroup"
    },
    "PrivateRouteTable": {
      "Properties": {
        "VpcId": {
          "Ref": "Vpc"
        },
        "Tags": [
          {
            "Key": "Application",
            "Value": {
              "Ref": "AWS::StackName"
            }
          },
          {
            "Key": "Network",
            "Value": "Public"
          }
        ]
      },
      "Type": "AWS::EC2::RouteTable"
    },
    "PublicSubnetNetworkAclAssociation": {
      "Properties": {
        "SubnetId": {
          "Ref": "PublicSubnet"
        },
        "NetworkAclId": {
          "Ref": "PublicNetworkAcl"
        }
      },
      "Type": "AWS::EC2::SubnetNetworkAclAssociation"
    },
    "SlaveServerGroup": {
      "Properties": {
        "MinSize": {
          "Ref": "SlaveInstanceCount"
        },
        "LaunchConfigurationName": {
          "Ref": "SlaveLaunchConfig"
        },
        "Tags": [
          {
            "PropagateAtLaunch": "true",
            "Key": "role",
            "Value": "mesos-slave"
          }
        ],
        "VPCZoneIdentifier": [
          {
            "Ref": "PrivateSubnet"
          }
        ],
        "AvailabilityZones": [
          {
            "Fn::GetAtt": [
              "PrivateSubnet",
              "AvailabilityZone"
            ]
          }
        ],
        "DesiredCapacity": {
          "Ref": "SlaveInstanceCount"
        },
        "MaxSize": {
          "Ref": "SlaveInstanceCount"
        }
      },
      "CreationPolicy": {
        "ResourceSignal": {
          "Timeout": {
            "Fn::FindInMap": [
              "Parameters",
              "StackCreationTimeout",
              "default"
            ]
          },
          "Count": {
            "Ref": "SlaveInstanceCount"
          }
        }
      },
      "DependsOn": "GatewayToInternet",
      "Type": "AWS::AutoScaling::AutoScalingGroup"
    },
    "OutboundNetworkAclEntry": {
      "Properties": {
        "CidrBlock": "0.0.0.0/0",
        "NetworkAclId": {
          "Ref": "PublicNetworkAcl"
        },
        "RuleAction": "allow",
        "Egress": "true",
        "RuleNumber": "100",
        "PortRange": {
          "To": "65535",
          "From": "0"
        },
        "Protocol": "-1"
      },
      "Type": "AWS::EC2::NetworkAclEntry"
    },
    "MasterToSlaveIngress": {
      "Properties": {
        "GroupId": {
          "Ref": "SlaveSecurityGroup"
        },
        "SourceSecurityGroupId": {
          "Ref": "MasterSecurityGroup"
        },
        "ToPort": "65535",
        "FromPort": "0",
        "IpProtocol": "-1"
      },
      "Type": "AWS::EC2::SecurityGroupIngress"
    },
    "ExhibitorS3Bucket": {
      "DeletionPolicy": "Retain",
      "Type": "AWS::S3::Bucket"
    },
    "SlaveRole": {
      "Properties": {
        "AssumeRolePolicyDocument": {
          "Version": "2012-10-17",
          "Statement": [
            {
              "Principal": {
                "Service": [
                  "ec2.amazonaws.com"
                ]
              },
              "Action": [
                "sts:AssumeRole"
              ],
              "Effect": "Allow"
            }
          ]
        },
        "Policies": [
          {
            "PolicyDocument": {
              "Version": "2012-10-17",
              "Statement": [
                {
                  "Resource": [
                    {
                      "Ref": "AWS::StackId"
                    },
                    {
                      "Fn::Join": [
                        "",
                        [
                          {
                            "Ref": "AWS::StackId"
                          },
                          "/*"
                        ]
                      ]
                    }
                  ],
                  "Action": [
                    "cloudformation:*"
                  ],
                  "Effect": "Allow"
                },
                {
                  "Resource": "*",
                  "Action": [
                    "ec2:CreateTags",
                    "ec2:DescribeInstances",
                    "ec2:CreateVolume",
                    "ec2:DeleteVolume",
                    "ec2:AttachVolume",
                    "ec2:DetachVolume",
                    "ec2:DescribeVolumes",
                    "ec2:DescribeVolumeStatus",
                    "ec2:DescribeVolumeAttribute",
                    "ec2:CreateSnapshot",
                    "ec2:CopySnapshot",
                    "ec2:DeleteSnapshot",
                    "ec2:DescribeSnapshots",
                    "ec2:DescribeSnapshotAttribute",
                    "autoscaling:DescribeAutoScalingGroups",
                    "cloudwatch:PutMetricData"
                  ],
                  "Effect": "Allow"
                }
              ]
            },
            "PolicyName": "Slaves"
          }
        ]
      },
      "Type": "AWS::IAM::Role"
    },
    "PublicSlaveIngressThree": {
      "Properties": {
        "CidrIp": "0.0.0.0/0",
        "GroupId": {
          "Ref": "PublicSlaveSecurityGroup"
        },
        "ToPort": "32000",
        "FromPort": "5052",
        "IpProtocol": "tcp"
      },
      "Type": "AWS::EC2::SecurityGroupIngress"
    },
    "ElasticLoadBalancer": {
      "Properties": {
        "SecurityGroups": [
          {
            "Ref": "LbSecurityGroup"
          },
          {
            "Ref": "AdminSecurityGroup"
          }
        ],
        "HealthCheck": {
          "HealthyThreshold": "2",
          "Interval": "30",
          "Target": "TCP:5050",
          "Timeout": "5",
          "UnhealthyThreshold": "2"
        },
        "Listeners": [
          {
            "InstancePort": "80",
            "Protocol": "TCP",
            "InstanceProtocol": "TCP",
            "LoadBalancerPort": "80"
          },
          {
            "InstancePort": "443",
            "Protocol": "TCP",
            "InstanceProtocol": "TCP",
            "LoadBalancerPort": "443"
          }
        ],
        "Subnets": [
          {
            "Ref": "PublicSubnet"
          }
        ]
      },
      "DependsOn": "GatewayToInternet",
      "Type": "AWS::ElasticLoadBalancing::LoadBalancer"
    },
    "InternetGateway": {
      "Properties": {
        "Tags": [
          {
            "Key": "Application",
            "Value": {
              "Ref": "AWS::StackName"
            }
          },
          {
            "Key": "Network",
            "Value": "Public"
          }
        ]
      },
      "DependsOn": "Vpc",
      "Type": "AWS::EC2::InternetGateway"
    },
    "SlaveToMasterIngress": {
      "Properties": {
        "GroupId": {
          "Ref": "MasterSecurityGroup"
        },
        "SourceSecurityGroupId": {
          "Ref": "SlaveSecurityGroup"
        },
        "ToPort": "65535",
        "FromPort": "0",
        "IpProtocol": "-1"
      },
      "Type": "AWS::EC2::SecurityGroupIngress"
    },
    "InternalMasterLoadBalancer": {
      "Properties": {
        "SecurityGroups": [
          {
            "Ref": "LbSecurityGroup"
          },
          {
            "Ref": "AdminSecurityGroup"
          },
          {
            "Ref": "SlaveSecurityGroup"
          },
          {
            "Ref": "PublicSlaveSecurityGroup"
          },
          {
            "Ref": "MasterSecurityGroup"
          }
        ],
        "HealthCheck": {
          "HealthyThreshold": "2",
          "Interval": "30",
          "Target": "TCP:5050",
          "Timeout": "5",
          "UnhealthyThreshold": "2"
        },
        "Scheme": "internal",
        "Listeners": [
          {
            "InstancePort": "5050",
            "Protocol": "HTTP",
            "InstanceProtocol": "HTTP",
            "LoadBalancerPort": "5050"
          },
          {
            "InstancePort": "2181",
            "Protocol": "TCP",
            "InstanceProtocol": "TCP",
            "LoadBalancerPort": "2181"
          },
          {
            "InstancePort": "8181",
            "Protocol": "HTTP",
            "InstanceProtocol": "HTTP",
            "LoadBalancerPort": "8181"
          },
          {
            "InstancePort": "80",
            "Protocol": "TCP",
            "InstanceProtocol": "TCP",
            "LoadBalancerPort": "80"
          },
          {
            "InstancePort": "443",
            "Protocol": "TCP",
            "InstanceProtocol": "TCP",
            "LoadBalancerPort": "443"
          },
          {
            "InstancePort": "8080",
            "Protocol": "HTTP",
            "InstanceProtocol": "HTTP",
            "LoadBalancerPort": "8080"
          }
        ],
        "Subnets": [
          {
            "Ref": "PublicSubnet"
          }
        ]
      },
      "Type": "AWS::ElasticLoadBalancing::LoadBalancer"
    },
    "GatewayToInternet": {
      "Properties": {
        "VpcId": {
          "Ref": "Vpc"
        },
        "InternetGatewayId": {
          "Ref": "InternetGateway"
        }
      },
      "DependsOn": "InternetGateway",
      "Type": "AWS::EC2::VPCGatewayAttachment"
    },
    "MasterLaunchConfig": {
      "Properties": {
        "KeyName": {
          "Ref": "KeyName"
        },
        "SecurityGroups": [
          {
            "Ref": "MasterSecurityGroup"
          },
          {
            "Ref": "AdminSecurityGroup"
          }
        ],
        "UserData": {
          "Fn::Base64": {
            "Fn::Join": [
              "",
              [
                "#cloud-config",
                "\n",
                "\"coreos\":",
                "\n",
                "  \"units\":",
                "\n",
                "  - \"command\": |-",
                "\n",
                "      start",
                "\n",
                "    \"content\": |",
                "\n",
                "      [Unit]",
                "\n",
                "      Description=AWS Setup: Formats the /var/lib ephemeral drive",
                "\n",
                "      Before=var-lib.mount dbus.service",
                "\n",
                "      [Service]",
                "\n",
                "      Type=oneshot",
                "\n",
                "      RemainAfterExit=yes",
                "\n",
                "      ExecStart=/bin/bash -c \"(blkid -t TYPE=ext4 | grep xvdb) || (/usr/sbin/mkfs.ext4 -F /dev/xvdb)\"",
                "\n",
                "    \"name\": |-",
                "\n",
                "      format-var-lib-ephemeral.service",
                "\n",
                "  - \"command\": |-",
                "\n",
                "      start",
                "\n",
                "    \"content\": |",
                "\n",
                "      [Unit]",
                "\n",
                "      Description=AWS Setup: Mount /var/lib",
                "\n",
                "      Before=dbus.service",
                "\n",
                "      [Mount]",
                "\n",
                "      What=/dev/xvdb",
                "\n",
                "      Where=/var/lib",
                "\n",
                "      Type=ext4",
                "\n",
                "    \"name\": |-",
                "\n",
                "      var-lib.mount",
                "\n",
                "  - \"command\": |-",
                "\n",
                "      stop",
                "\n",
                "    \"mask\": !!bool |-",
                "\n",
                "      true",
                "\n",
                "    \"name\": |-",
                "\n",
                "      etcd.service",
                "\n",
                "  - \"command\": |-",
                "\n",
                "      stop",
                "\n",
                "    \"mask\": !!bool |-",
                "\n",
                "      true",
                "\n",
                "    \"name\": |-",
                "\n",
                "      update-engine.service",
                "\n",
                "  - \"command\": |-",
                "\n",
                "      stop",
                "\n",
                "    \"mask\": !!bool |-",
                "\n",
                "      true",
                "\n",
                "    \"name\": |-",
                "\n",
                "      locksmithd.service",
                "\n",
                "  - \"command\": |-",
                "\n",
                "      stop",
                "\n",
                "    \"name\": |-",
                "\n",
                "      systemd-resolved.service",
                "\n",
                "  - \"command\": |-",
                "\n",
                "      restart",
                "\n",
                "    \"name\": |-",
                "\n",
                "      systemd-journald.service",
                "\n",
                "  - \"command\": |-",
                "\n",
                "      restart",
                "\n",
                "    \"name\": |-",
                "\n",
                "      docker.service",
                "\n",
                "  - \"command\": |-",
                "\n",
                "      start",
                "\n",
                "    \"content\": |",
                "\n",
                "      [Unit]",
                "\n",
                "      Before=dcos.target",
                "\n",
                "      [Service]",
                "\n",
                "      Type=oneshot",
                "\n",
                "      StandardOutput=journal+console",
                "\n",
                "      StandardError=journal+console",
                "\n",
                "      ExecStartPre=/usr/bin/mkdir -p /etc/profile.d",
                "\n",
                "      ExecStart=/usr/bin/ln -sf /opt/mesosphere/bin/add_dcos_path.sh /etc/profile.d/dcos.sh",
                "\n",
                "    \"name\": |-",
                "\n",
                "      dcos-link-env.service",
                "\n",
                "  - \"content\": |",
                "\n",
                "      [Unit]",
                "\n",
                "      Description=Pkgpanda: Download DC/OS to this host.",
                "\n",
                "      After=network-online.target",
                "\n",
                "      Wants=network-online.target",
                "\n",
                "      ConditionPathExists=!/opt/mesosphere/",
                "\n",
                "      [Service]",
                "\n",
                "      Type=oneshot",
                "\n",
                "      StandardOutput=journal+console",
                "\n",
                "      StandardError=journal+console",
                "\n",
                "      ExecStartPre=/usr/bin/curl --keepalive-time 2 -fLsSv --retry 20 -Y 100000 -y 60 -o /tmp/bootstrap.tar.xz https://downloads.dcos.io/dcos/stable/1.9.1/bootstrap/c3db0d9bd3ab2897343aaa1b5609e4e1956d7740.bootstrap.tar.xz",
                "\n",
                "      ExecStartPre=/usr/bin/mkdir -p /opt/mesosphere",
                "\n",
                "      ExecStart=/usr/bin/tar -axf /tmp/bootstrap.tar.xz -C /opt/mesosphere",
                "\n",
                "      ExecStartPost=-/usr/bin/rm -f /tmp/bootstrap.tar.xz",
                "\n",
                "    \"name\": |-",
                "\n",
                "      dcos-download.service",
                "\n",
                "  - \"command\": |-",
                "\n",
                "      start",
                "\n",
                "    \"content\": |",
                "\n",
                "      [Unit]",
                "\n",
                "      Description=Pkgpanda: Specialize DC/OS for this host.",
                "\n",
                "      Requires=dcos-download.service",
                "\n",
                "      After=dcos-download.service",
                "\n",
                "      [Service]",
                "\n",
                "      Type=oneshot",
                "\n",
                "      StandardOutput=journal+console",
                "\n",
                "      StandardError=journal+console",
                "\n",
                "      EnvironmentFile=/opt/mesosphere/environment",
                "\n",
                "      ExecStart=/opt/mesosphere/bin/pkgpanda setup --no-block-systemd",
                "\n",
                "      [Install]",
                "\n",
                "      WantedBy=multi-user.target",
                "\n",
                "    \"enable\": !!bool |-",
                "\n",
                "      true",
                "\n",
                "    \"name\": |-",
                "\n",
                "      dcos-setup.service",
                "\n",
                "    \"no_block\": !!bool |-",
                "\n",
                "      true",
                "\n",
                "  - \"command\": |-",
                "\n",
                "      start",
                "\n",
                "    \"content\": |-",
                "\n",
                "      [Unit]",
                "\n",
                "      Description=AWS Setup: Signal CloudFormation Success",
                "\n",
                "      ConditionPathExists=!/var/lib/dcos-cfn-signal",
                "\n",
                "      [Service]",
                "\n",
                "      Type=simple",
                "\n",
                "      Restart=on-failure",
                "\n",
                "      StartLimitInterval=0",
                "\n",
                "      RestartSec=15s",
                "\n",
                "      EnvironmentFile=/opt/mesosphere/environment",
                "\n",
                "      EnvironmentFile=/opt/mesosphere/etc/cfn_signal_metadata",
                "\n",
                "      Environment=\"AWS_CFN_SIGNAL_THIS_RESOURCE=MasterServerGroup\"",
                "\n",
                "      ExecStartPre=/bin/ping -c1 leader.mesos",
                "\n",
                "      ExecStartPre=/opt/mesosphere/bin/cfn-signal",
                "\n",
                "      ExecStart=/usr/bin/touch /var/lib/dcos-cfn-signal",
                "\n",
                "    \"name\": |-",
                "\n",
                "      dcos-cfn-signal.service",
                "\n",
                "    \"no_block\": !!bool |-",
                "\n",
                "      true",
                "\n",
                "  \"update\":",
                "\n",
                "    \"reboot-strategy\": |-",
                "\n",
                "      off",
                "\n",
                "\"write_files\":",
                "\n",
                "- \"content\": |",
                "\n",
                "    https://downloads.dcos.io/dcos/stable/1.9.1",
                "\n",
                "  \"owner\": |-",
                "\n",
                "    root",
                "\n",
                "  \"path\": |-",
                "\n",
                "    /etc/mesosphere/setup-flags/repository-url",
                "\n",
                "  \"permissions\": |-",
                "\n",
                "    0644",
                "\n",
                "- \"content\": |",
                "\n",
                "    ",
                {
                  "Fn::FindInMap": [
                    "ClusterPackagesJson",
                    "default",
                    "default"
                  ]
                },
                "\n",
                "  \"owner\": |-",
                "\n",
                "    root",
                "\n",
                "  \"path\": |-",
                "\n",
                "    /etc/mesosphere/setup-flags/cluster-packages.json",
                "\n",
                "  \"permissions\": |-",
                "\n",
                "    0644",
                "\n",
                "- \"content\": |",
                "\n",
                "    [Journal]",
                "\n",
                "    MaxLevelConsole=warning",
                "\n",
                "    RateLimitInterval=1s",
                "\n",
                "    RateLimitBurst=20000",
                "\n",
                "  \"owner\": |-",
                "\n",
                "    root",
                "\n",
                "  \"path\": |-",
                "\n",
                "    /etc/systemd/journald.conf.d/dcos.conf",
                "\n",
                "  \"permissions\": |-",
                "\n",
                "    0644",
                "\n",
                "- \"content\": |",
                "\n",
                "    rexray:",
                "\n",
                "      loglevel: info",
                "\n",
                "      modules:",
                "\n",
                "        default-admin:",
                "\n",
                "          host: tcp://127.0.0.1:61003",
                "\n",
                "      storageDrivers:",
                "\n",
                "      - ec2",
                "\n",
                "      volume:",
                "\n",
                "        unmount:",
                "\n",
                "          ignoreusedcount: true",
                "\n",
                "  \"path\": |-",
                "\n",
                "    /etc/rexray/config.yml",
                "\n",
                "  \"permissions\": |-",
                "\n",
                "    0644",
                "\n",
                "- \"content\": |",
                "\n",
                "    \"bound_values\":",
                "\n",
                "      \"adminrouter_auth_enabled\": |-",
                "\n",
                "        ",
                {
                  "Ref": "OAuthEnabled"
                },
                "\n",
                "      \"agent_role\": |-",
                "\n",
                "        ",
                {
                  "Ref": "SlaveRole"
                },
                "\n",
                "      \"aws_region\": |-",
                "\n",
                "        ",
                {
                  "Ref": "AWS::Region"
                },
                "\n",
                "      \"aws_stack_id\": |-",
                "\n",
                "        ",
                {
                  "Ref": "AWS::StackId"
                },
                "\n",
                "      \"aws_stack_name\": |-",
                "\n",
                "        ",
                {
                  "Ref": "AWS::StackName"
                },
                "\n",
                "      \"cluster_name\": |-",
                "\n",
                "        ",
                {
                  "Ref": "AWS::StackName"
                },
                "\n",
                "      \"exhibitor_address\": |-",
                "\n",
                "        ",
                {
                  "Fn::GetAtt": [
                    "InternalMasterLoadBalancer",
                    "DNSName"
                  ]
                },
                "\n",
                "      \"master_external_loadbalancer\": |-",
                "\n",
                "        ",
                {
                  "Fn::GetAtt": [
                    "ElasticLoadBalancer",
                    "DNSName"
                  ]
                },
                "\n",
                "      \"master_role\": |-",
                "\n",
                "        ",
                {
                  "Ref": "MasterRole"
                },
                "\n",
                "      \"oauth_enabled\": |-",
                "\n",
                "        ",
                {
                  "Ref": "OAuthEnabled"
                },
                "\n",
                "      \"s3_bucket\": |-",
                "\n",
                "        ",
                {
                  "Ref": "ExhibitorS3Bucket"
                },
                "\n",
                "      \"s3_prefix\": |-",
                "\n",
                "        ",
                {
                  "Ref": "AWS::StackName"
                },
                "\n",
                "    \"late_bound_package_id\": |-",
                "\n",
                "      dcos-provider-4c448a69472c87260669e8c2af732657a449b35e-aws--setup",
                "\n",
                "  \"owner\": |-",
                "\n",
                "    root",
                "\n",
                "  \"path\": |-",
                "\n",
                "    /etc/mesosphere/setup-flags/late-config.yaml",
                "\n",
                "  \"permissions\": |-",
                "\n",
                "    0644",
                "\n",
                "- \"content\": \"\"",
                "\n",
                "  \"path\": |-",
                "\n",
                "    /etc/mesosphere/roles/master",
                "\n",
                "- \"content\": \"\"",
                "\n",
                "  \"path\": |-",
                "\n",
                "    /etc/mesosphere/roles/aws_master",
                "\n",
                "- \"content\": \"\"",
                "\n",
                "  \"path\": |-",
                "\n",
                "    /etc/mesosphere/roles/aws",
                "\n"
              ]
            ]
          }
        },
        "BlockDeviceMappings": [
          {
            "VirtualName": "ephemeral0",
            "DeviceName": "/dev/sdb"
          }
        ],
        "InstanceType": {
          "Fn::FindInMap": [
            "Parameters",
            "MasterInstanceType",
            "default"
          ]
        },
        "ImageId": {
          "Fn::FindInMap": [
            "RegionToAmi",
            {
              "Ref": "AWS::Region"
            },
            "stable"
          ]
        },
        "AssociatePublicIpAddress": "true",
        "EbsOptimized": "true",
        "IamInstanceProfile": {
          "Ref": "MasterInstanceProfile"
        }
      },
      "Type": "AWS::AutoScaling::LaunchConfiguration"
    },
    "SlaveLaunchConfig": {
      "Properties": {
        "KeyName": {
          "Ref": "KeyName"
        },
        "SecurityGroups": [
          {
            "Ref": "SlaveSecurityGroup"
          }
        ],
        "UserData": {
          "Fn::Base64": {
            "Fn::Join": [
              "",
              [
                "#cloud-config",
                "\n",
                "\"coreos\":",
                "\n",
                "  \"units\":",
                "\n",
                "  - \"command\": |-",
                "\n",
                "      start",
                "\n",
                "    \"content\": |",
                "\n",
                "      [Unit]",
                "\n",
                "      Description=AWS Setup: Formats the /var/lib ephemeral drive",
                "\n",
                "      Before=var-lib.mount dbus.service",
                "\n",
                "      [Service]",
                "\n",
                "      Type=oneshot",
                "\n",
                "      RemainAfterExit=yes",
                "\n",
                "      ExecStart=/bin/bash -c \"(blkid -t TYPE=ext4 | grep xvdb) || (/usr/sbin/mkfs.ext4 -F /dev/xvdb)\"",
                "\n",
                "    \"name\": |-",
                "\n",
                "      format-var-lib-ephemeral.service",
                "\n",
                "  - \"command\": |-",
                "\n",
                "      start",
                "\n",
                "    \"content\": |",
                "\n",
                "      [Unit]",
                "\n",
                "      Description=AWS Setup: Mount /var/lib",
                "\n",
                "      Before=dbus.service",
                "\n",
                "      [Mount]",
                "\n",
                "      What=/dev/xvdb",
                "\n",
                "      Where=/var/lib",
                "\n",
                "      Type=ext4",
                "\n",
                "    \"name\": |-",
                "\n",
                "      var-lib.mount",
                "\n",
                "  - \"command\": |-",
                "\n",
                "      stop",
                "\n",
                "    \"mask\": !!bool |-",
                "\n",
                "      true",
                "\n",
                "    \"name\": |-",
                "\n",
                "      etcd.service",
                "\n",
                "  - \"command\": |-",
                "\n",
                "      stop",
                "\n",
                "    \"mask\": !!bool |-",
                "\n",
                "      true",
                "\n",
                "    \"name\": |-",
                "\n",
                "      update-engine.service",
                "\n",
                "  - \"command\": |-",
                "\n",
                "      stop",
                "\n",
                "    \"mask\": !!bool |-",
                "\n",
                "      true",
                "\n",
                "    \"name\": |-",
                "\n",
                "      locksmithd.service",
                "\n",
                "  - \"command\": |-",
                "\n",
                "      stop",
                "\n",
                "    \"name\": |-",
                "\n",
                "      systemd-resolved.service",
                "\n",
                "  - \"command\": |-",
                "\n",
                "      restart",
                "\n",
                "    \"name\": |-",
                "\n",
                "      systemd-journald.service",
                "\n",
                "  - \"command\": |-",
                "\n",
                "      restart",
                "\n",
                "    \"name\": |-",
                "\n",
                "      docker.service",
                "\n",
                "  - \"command\": |-",
                "\n",
                "      start",
                "\n",
                "    \"content\": |",
                "\n",
                "      [Unit]",
                "\n",
                "      Before=dcos.target",
                "\n",
                "      [Service]",
                "\n",
                "      Type=oneshot",
                "\n",
                "      StandardOutput=journal+console",
                "\n",
                "      StandardError=journal+console",
                "\n",
                "      ExecStartPre=/usr/bin/mkdir -p /etc/profile.d",
                "\n",
                "      ExecStart=/usr/bin/ln -sf /opt/mesosphere/bin/add_dcos_path.sh /etc/profile.d/dcos.sh",
                "\n",
                "    \"name\": |-",
                "\n",
                "      dcos-link-env.service",
                "\n",
                "  - \"content\": |",
                "\n",
                "      [Unit]",
                "\n",
                "      Description=Pkgpanda: Download DC/OS to this host.",
                "\n",
                "      After=network-online.target",
                "\n",
                "      Wants=network-online.target",
                "\n",
                "      ConditionPathExists=!/opt/mesosphere/",
                "\n",
                "      [Service]",
                "\n",
                "      Type=oneshot",
                "\n",
                "      StandardOutput=journal+console",
                "\n",
                "      StandardError=journal+console",
                "\n",
                "      ExecStartPre=/usr/bin/curl --keepalive-time 2 -fLsSv --retry 20 -Y 100000 -y 60 -o /tmp/bootstrap.tar.xz https://downloads.dcos.io/dcos/stable/1.9.1/bootstrap/c3db0d9bd3ab2897343aaa1b5609e4e1956d7740.bootstrap.tar.xz",
                "\n",
                "      ExecStartPre=/usr/bin/mkdir -p /opt/mesosphere",
                "\n",
                "      ExecStart=/usr/bin/tar -axf /tmp/bootstrap.tar.xz -C /opt/mesosphere",
                "\n",
                "      ExecStartPost=-/usr/bin/rm -f /tmp/bootstrap.tar.xz",
                "\n",
                "    \"name\": |-",
                "\n",
                "      dcos-download.service",
                "\n",
                "  - \"command\": |-",
                "\n",
                "      start",
                "\n",
                "    \"content\": |",
                "\n",
                "      [Unit]",
                "\n",
                "      Description=Pkgpanda: Specialize DC/OS for this host.",
                "\n",
                "      Requires=dcos-download.service",
                "\n",
                "      After=dcos-download.service",
                "\n",
                "      [Service]",
                "\n",
                "      Type=oneshot",
                "\n",
                "      StandardOutput=journal+console",
                "\n",
                "      StandardError=journal+console",
                "\n",
                "      EnvironmentFile=/opt/mesosphere/environment",
                "\n",
                "      ExecStart=/opt/mesosphere/bin/pkgpanda setup --no-block-systemd",
                "\n",
                "      [Install]",
                "\n",
                "      WantedBy=multi-user.target",
                "\n",
                "    \"enable\": !!bool |-",
                "\n",
                "      true",
                "\n",
                "    \"name\": |-",
                "\n",
                "      dcos-setup.service",
                "\n",
                "    \"no_block\": !!bool |-",
                "\n",
                "      true",
                "\n",
                "  - \"command\": |-",
                "\n",
                "      start",
                "\n",
                "    \"content\": |-",
                "\n",
                "      [Unit]",
                "\n",
                "      Description=AWS Setup: Signal CloudFormation Success",
                "\n",
                "      ConditionPathExists=!/var/lib/dcos-cfn-signal",
                "\n",
                "      [Service]",
                "\n",
                "      Type=simple",
                "\n",
                "      Restart=on-failure",
                "\n",
                "      StartLimitInterval=0",
                "\n",
                "      RestartSec=15s",
                "\n",
                "      EnvironmentFile=/opt/mesosphere/environment",
                "\n",
                "      EnvironmentFile=/opt/mesosphere/etc/cfn_signal_metadata",
                "\n",
                "      Environment=\"AWS_CFN_SIGNAL_THIS_RESOURCE=SlaveServerGroup\"",
                "\n",
                "      ExecStartPre=/bin/ping -c1 leader.mesos",
                "\n",
                "      ExecStartPre=/opt/mesosphere/bin/cfn-signal",
                "\n",
                "      ExecStart=/usr/bin/touch /var/lib/dcos-cfn-signal",
                "\n",
                "    \"name\": |-",
                "\n",
                "      dcos-cfn-signal.service",
                "\n",
                "    \"no_block\": !!bool |-",
                "\n",
                "      true",
                "\n",
                "  \"update\":",
                "\n",
                "    \"reboot-strategy\": |-",
                "\n",
                "      off",
                "\n",
                "\"write_files\":",
                "\n",
                "- \"content\": |",
                "\n",
                "    https://downloads.dcos.io/dcos/stable/1.9.1",
                "\n",
                "  \"owner\": |-",
                "\n",
                "    root",
                "\n",
                "  \"path\": |-",
                "\n",
                "    /etc/mesosphere/setup-flags/repository-url",
                "\n",
                "  \"permissions\": |-",
                "\n",
                "    0644",
                "\n",
                "- \"content\": |",
                "\n",
                "    ",
                {
                  "Fn::FindInMap": [
                    "ClusterPackagesJson",
                    "default",
                    "default"
                  ]
                },
                "\n",
                "  \"owner\": |-",
                "\n",
                "    root",
                "\n",
                "  \"path\": |-",
                "\n",
                "    /etc/mesosphere/setup-flags/cluster-packages.json",
                "\n",
                "  \"permissions\": |-",
                "\n",
                "    0644",
                "\n",
                "- \"content\": |",
                "\n",
                "    [Journal]",
                "\n",
                "    MaxLevelConsole=warning",
                "\n",
                "    RateLimitInterval=1s",
                "\n",
                "    RateLimitBurst=20000",
                "\n",
                "  \"owner\": |-",
                "\n",
                "    root",
                "\n",
                "  \"path\": |-",
                "\n",
                "    /etc/systemd/journald.conf.d/dcos.conf",
                "\n",
                "  \"permissions\": |-",
                "\n",
                "    0644",
                "\n",
                "- \"content\": |",
                "\n",
                "    rexray:",
                "\n",
                "      loglevel: info",
                "\n",
                "      modules:",
                "\n",
                "        default-admin:",
                "\n",
                "          host: tcp://127.0.0.1:61003",
                "\n",
                "      storageDrivers:",
                "\n",
                "      - ec2",
                "\n",
                "      volume:",
                "\n",
                "        unmount:",
                "\n",
                "          ignoreusedcount: true",
                "\n",
                "  \"path\": |-",
                "\n",
                "    /etc/rexray/config.yml",
                "\n",
                "  \"permissions\": |-",
                "\n",
                "    0644",
                "\n",
                "- \"content\": |",
                "\n",
                "    \"bound_values\":",
                "\n",
                "      \"adminrouter_auth_enabled\": |-",
                "\n",
                "        ",
                {
                  "Ref": "OAuthEnabled"
                },
                "\n",
                "      \"agent_role\": |-",
                "\n",
                "        ",
                {
                  "Ref": "SlaveRole"
                },
                "\n",
                "      \"aws_region\": |-",
                "\n",
                "        ",
                {
                  "Ref": "AWS::Region"
                },
                "\n",
                "      \"aws_stack_id\": |-",
                "\n",
                "        ",
                {
                  "Ref": "AWS::StackId"
                },
                "\n",
                "      \"aws_stack_name\": |-",
                "\n",
                "        ",
                {
                  "Ref": "AWS::StackName"
                },
                "\n",
                "      \"cluster_name\": |-",
                "\n",
                "        ",
                {
                  "Ref": "AWS::StackName"
                },
                "\n",
                "      \"exhibitor_address\": |-",
                "\n",
                "        ",
                {
                  "Fn::GetAtt": [
                    "InternalMasterLoadBalancer",
                    "DNSName"
                  ]
                },
                "\n",
                "      \"master_external_loadbalancer\": |-",
                "\n",
                "        ",
                {
                  "Fn::GetAtt": [
                    "ElasticLoadBalancer",
                    "DNSName"
                  ]
                },
                "\n",
                "      \"master_role\": |-",
                "\n",
                "        ",
                {
                  "Ref": "MasterRole"
                },
                "\n",
                "      \"oauth_enabled\": |-",
                "\n",
                "        ",
                {
                  "Ref": "OAuthEnabled"
                },
                "\n",
                "      \"s3_bucket\": |-",
                "\n",
                "        ",
                {
                  "Ref": "ExhibitorS3Bucket"
                },
                "\n",
                "      \"s3_prefix\": |-",
                "\n",
                "        ",
                {
                  "Ref": "AWS::StackName"
                },
                "\n",
                "    \"late_bound_package_id\": |-",
                "\n",
                "      dcos-provider-4c448a69472c87260669e8c2af732657a449b35e-aws--setup",
                "\n",
                "  \"owner\": |-",
                "\n",
                "    root",
                "\n",
                "  \"path\": |-",
                "\n",
                "    /etc/mesosphere/setup-flags/late-config.yaml",
                "\n",
                "  \"permissions\": |-",
                "\n",
                "    0644",
                "\n",
                "- \"content\": \"\"",
                "\n",
                "  \"path\": |-",
                "\n",
                "    /etc/mesosphere/roles/slave",
                "\n",
                "- \"content\": \"\"",
                "\n",
                "  \"path\": |-",
                "\n",
                "    /etc/mesosphere/roles/aws",
                "\n"
              ]
            ]
          }
        },
        "BlockDeviceMappings": [
          {
            "VirtualName": "ephemeral0",
            "DeviceName": "/dev/sdb"
          }
        ],
        "InstanceType": {
          "Fn::FindInMap": [
            "Parameters",
            "SlaveInstanceType",
            "default"
          ]
        },
        "ImageId": {
          "Fn::FindInMap": [
            "RegionToAmi",
            {
              "Ref": "AWS::Region"
            },
            "stable"
          ]
        },
        "AssociatePublicIpAddress": "false",
        "EbsOptimized": "true",
        "IamInstanceProfile": {
          "Ref": "SlaveInstanceProfile"
        }
      },
      "Type": "AWS::AutoScaling::LaunchConfiguration"
    },
    "MasterServerGroup": {
      "Properties": {
        "LoadBalancerNames": [
          {
            "Ref": "ElasticLoadBalancer"
          },
          {
            "Ref": "InternalMasterLoadBalancer"
          }
        ],
        "MinSize": 1,
        "LaunchConfigurationName": {
          "Ref": "MasterLaunchConfig"
        },
        "Tags": [
          {
            "PropagateAtLaunch": "true",
            "Key": "role",
            "Value": "mesos-master"
          }
        ],
        "VPCZoneIdentifier": [
          {
            "Ref": "PublicSubnet"
          }
        ],
        "AvailabilityZones": [
          {
            "Fn::GetAtt": [
              "PublicSubnet",
              "AvailabilityZone"
            ]
          }
        ],
        "DesiredCapacity": 1,
        "MaxSize": 1
      },
      "CreationPolicy": {
        "ResourceSignal": {
          "Timeout": {
            "Fn::FindInMap": [
              "Parameters",
              "StackCreationTimeout",
              "default"
            ]
          },
          "Count": 1
        }
      },
      "DependsOn": "GatewayToInternet",
      "Type": "AWS::AutoScaling::AutoScalingGroup"
    },
    "PrivateSubnetRouteTableAssociation": {
      "Properties": {
        "SubnetId": {
          "Ref": "PrivateSubnet"
        },
        "RouteTableId": {
          "Ref": "PrivateRouteTable"
        }
      },
      "Type": "AWS::EC2::SubnetRouteTableAssociation"
    },
    "VPCDHCPOptionsAssociation": {
      "Properties": {
        "DhcpOptionsId": {
          "Ref": "DHCPOptions"
        },
        "VpcId": {
          "Ref": "Vpc"
        }
      },
      "DependsOn": "Vpc",
      "Type": "AWS::EC2::VPCDHCPOptionsAssociation"
    },
    "PrivateNetworkAcl": {
      "Properties": {
        "VpcId": {
          "Ref": "Vpc"
        },
        "Tags": [
          {
            "Key": "Application",
            "Value": {
              "Ref": "AWS::StackName"
            }
          },
          {
            "Key": "Network",
            "Value": "Public"
          }
        ]
      },
      "Type": "AWS::EC2::NetworkAcl"
    },
    "PublicSubnetRouteTableAssociation": {
      "Properties": {
        "SubnetId": {
          "Ref": "PublicSubnet"
        },
        "RouteTableId": {
          "Ref": "PublicRouteTable"
        }
      },
      "Type": "AWS::EC2::SubnetRouteTableAssociation"
    },
    "PublicRouteTable": {
      "Properties": {
        "VpcId": {
          "Ref": "Vpc"
        },
        "Tags": [
          {
            "Key": "Application",
            "Value": {
              "Ref": "AWS::StackName"
            }
          },
          {
            "Key": "Network",
            "Value": "Public"
          }
        ]
      },
      "DependsOn": "Vpc",
      "Type": "AWS::EC2::RouteTable"
    },
    "PrivateSubnet": {
      "Properties": {
        "VpcId": {
          "Ref": "Vpc"
        },
        "Tags": [
          {
            "Key": "Application",
            "Value": {
              "Ref": "AWS::StackName"
            }
          },
          {
            "Key": "Network",
            "Value": "Private"
          }
        ],
        "CidrBlock": {
          "Fn::FindInMap": [
            "Parameters",
            "PrivateSubnetRange",
            "default"
          ]
        }
      },
      "DependsOn": "Vpc",
      "Type": "AWS::EC2::Subnet"
    },
    "PublicSlaveIngressOne": {
      "Properties": {
        "CidrIp": "0.0.0.0/0",
        "GroupId": {
          "Ref": "PublicSlaveSecurityGroup"
        },
        "ToPort": "21",
        "FromPort": "0",
        "IpProtocol": "tcp"
      },
      "Type": "AWS::EC2::SecurityGroupIngress"
    },
    "MasterInstanceProfile": {
      "Properties": {
        "Roles": [
          {
            "Ref": "MasterRole"
          }
        ],
        "Path": "/"
      },
      "Type": "AWS::IAM::InstanceProfile"
    },
    "PrivateSubnetNetworkAclAssociation": {
      "Properties": {
        "SubnetId": {
          "Ref": "PrivateSubnet"
        },
        "NetworkAclId": {
          "Ref": "PrivateNetworkAcl"
        }
      },
      "Type": "AWS::EC2::SubnetNetworkAclAssociation"
    },
    "SlaveSecurityGroup": {
      "Properties": {
        "VpcId": {
          "Ref": "Vpc"
        },
        "GroupDescription": "Mesos Slaves"
      },
      "Type": "AWS::EC2::SecurityGroup"
    },
    "MasterSecurityGroup": {
      "Properties": {
        "VpcId": {
          "Ref": "Vpc"
        },
        "GroupDescription": "Mesos Masters",
        "SecurityGroupIngress": [
          {
            "SourceSecurityGroupId": {
              "Ref": "LbSecurityGroup"
            },
            "ToPort": "5050",
            "FromPort": "5050",
            "IpProtocol": "tcp"
          },
          {
            "SourceSecurityGroupId": {
              "Ref": "LbSecurityGroup"
            },
            "ToPort": "80",
            "FromPort": "80",
            "IpProtocol": "tcp"
          },
          {
            "SourceSecurityGroupId": {
              "Ref": "LbSecurityGroup"
            },
            "ToPort": "443",
            "FromPort": "443",
            "IpProtocol": "tcp"
          },
          {
            "SourceSecurityGroupId": {
              "Ref": "LbSecurityGroup"
            },
            "ToPort": "8080",
            "FromPort": "8080",
            "IpProtocol": "tcp"
          },
          {
            "SourceSecurityGroupId": {
              "Ref": "LbSecurityGroup"
            },
            "ToPort": "8181",
            "FromPort": "8181",
            "IpProtocol": "tcp"
          },
          {
            "SourceSecurityGroupId": {
              "Ref": "LbSecurityGroup"
            },
            "ToPort": "2181",
            "FromPort": "2181",
            "IpProtocol": "tcp"
          }
        ]
      },
      "Type": "AWS::EC2::SecurityGroup"
    },
    "SlaveToMasterLBIngress": {
      "Properties": {
        "GroupId": {
          "Ref": "LbSecurityGroup"
        },
        "SourceSecurityGroupId": {
          "Ref": "SlaveSecurityGroup"
        },
        "ToPort": "2181",
        "FromPort": "2181",
        "IpProtocol": "tcp"
      },
      "Type": "AWS::EC2::SecurityGroupIngress"
    },
    "PublicSlaveIngressFour": {
      "Properties": {
        "CidrIp": "0.0.0.0/0",
        "GroupId": {
          "Ref": "PublicSlaveSecurityGroup"
        },
        "ToPort": "21",
        "FromPort": "0",
        "IpProtocol": "udp"
      },
      "Type": "AWS::EC2::SecurityGroupIngress"
    },
    "PublicNetworkAcl": {
      "Properties": {
        "VpcId": {
          "Ref": "Vpc"
        },
        "Tags": [
          {
            "Key": "Application",
            "Value": {
              "Ref": "AWS::StackName"
            }
          },
          {
            "Key": "Network",
            "Value": "Public"
          }
        ]
      },
      "Type": "AWS::EC2::NetworkAcl"
    },
    "InboundNetworkAclEntry": {
      "Properties": {
        "CidrBlock": "0.0.0.0/0",
        "NetworkAclId": {
          "Ref": "PublicNetworkAcl"
        },
        "RuleAction": "allow",
        "Egress": "false",
        "RuleNumber": "100",
        "PortRange": {
          "To": "65535",
          "From": "0"
        },
        "Protocol": "-1"
      },
      "Type": "AWS::EC2::NetworkAclEntry"
    }
  },
  "Conditions": {
    "RegionIsUsEast1": {
      "Fn::Equals": [
        {
          "Ref": "AWS::Region"
        },
        "us-east-1"
      ]
    },
    "RegionIsUsGovWest1": {
      "Fn::Equals": [
        {
          "Ref": "AWS::Region"
        },
        "us-gov-west-1"
      ]
    }
  }
}
