{
  "Cluster": "worker-1",
  "ContainerInstanceArn": "arn:aws:ecs:us-west-2:383046911776:container-instance/5de4a528-0b66-49ac-bb5a-e831f03fbe0c",
  "Version": "Amazon ECS Agent - v1.14.4 (f94beb4)"
}
